{
    "collections": [
        {
            "id": "9mp14cx",
            "title": "Cool Cats",
            "description": null,
            "private": false,
            "media_count": 6,
            "photos_count": 5,
            "videos_count": 1
        }
    ],
    "page": 2,
    "per_page": 1,
    "total_results": 5,
    "next_page": "https://api.pexels.com/v1/collections/?page=3&per_page=1",
    "prev_page": "https://api.pexels.com/v1/collections/?page=1&per_page=1"
}
