{
    "id": "9mp14cx",
    "media": [
        {
            "type": "Photo",
            "id": 2061057,
            "width": 4850,
            "height": 3224,
            "url": "https://www.pexels.com/photo/gray-and-white-kitten-on-white-bed-2061057/",
            "photographer": "Tranmautritam",
            "photographer_url": "https://www.pexels.com/@tranmautritam",
            "photographer_id": 8509,
            "avg_color": "#BBBEC3",
            "src": {
                "original": "https://images.pexels.com/photos/2061057/pexels-photo-2061057.jpeg",
                "large2x": "https://images.pexels.com/photos/2061057/pexels-photo-2061057.jpeg?auto=compress&cs=tinysrgb&dpr=2&h=650&w=940",
                "large": "https://images.pexels.com/photos/2061057/pexels-photo-2061057.jpeg?auto=compress&cs=tinysrgb&h=650&w=940",
                "medium": "https://images.pexels.com/photos/2061057/pexels-photo-2061057.jpeg?auto=compress&cs=tinysrgb&h=350",
                "small": "https://images.pexels.com/photos/2061057/pexels-photo-2061057.jpeg?auto=compress&cs=tinysrgb&h=130",
                "portrait": "https://images.pexels.com/photos/2061057/pexels-photo-2061057.jpeg?auto=compress&cs=tinysrgb&fit=crop&h=1200&w=800",
                "landscape": "https://images.pexels.com/photos/2061057/pexels-photo-2061057.jpeg?auto=compress&cs=tinysrgb&fit=crop&h=627&w=1200",
                "tiny": "https://images.pexels.com/photos/2061057/pexels-photo-2061057.jpeg?auto=compress&cs=tinysrgb&dpr=1&fit=crop&h=200&w=280"
            },
            "liked": false
        },
        {
            "type": "Video",
            "id": 854982,
            "width": 1280,
            "height": 720,
            "duration": 11,
            "full_res": null,
            "tags": [],
            "url": "https://www.pexels.com/video/video-of-a-tabby-cat-854982/",
            "image": "https://images.pexels.com/videos/854982/free-video-854982.jpg?auto=compress&cs=tinysrgb&fit=crop&h=630&w=1200",
            "avg_color": null,
            "user": {
                "id": 2659,
                "name": "Pixabay",
                "url": "https://www.pexels.com/@pixabay"
            },
            "video_files": [
                {
                    "id": 17755,
                    "quality": "hd",
                    "file_type": "video/mp4",
                    "width": 1280,
                    "height": 720,
                    "link": "https://player.vimeo.com/external/199433617.hd.mp4?s=1770018c20604d41d60e4f574e7680a1bd15edb8&profile_id=174&oauth2_token_id=57447761"
                },
                {
                    "id": 17756,
                    "quality": "sd",
                    "file_type": "video/mp4",
                    "width": 640,
                    "height": 360,
                    "link": "https://player.vimeo.com/external/199433617.sd.mp4?s=457abd2452a52548b8c02c503a91035ce8a713f0&profile_id=164&oauth2_token_id=57447761"
                },
                {
                    "id": 17757,
                    "quality": "sd",
                    "file_type": "video/mp4",
                    "width": 960,
                    "height": 540,
                    "link": "https://player.vimeo.com/external/199433617.sd.mp4?s=457abd2452a52548b8c02c503a91035ce8a713f0&profile_id=165&oauth2_token_id=57447761"
                },
                {
                    "id": 17758,
                    "quality": "hls",
                    "file_type": "video/mp4",
                    "width": null,
                    "height": null,
                    "link": "https://player.vimeo.com/external/199433617.m3u8?s=115ec8875069ea6203ddca51dae78cebd934b86e&oauth2_token_id=57447761"
                }
            ],
            "video_pictures": [
                {
                    "id": 19591,
                    "nr": 0,
                    "picture": "https://images.pexels.com/videos/854982/pictures/preview-0.jpg"
                },
                {
                    "id": 19592,
                    "nr": 1,
                    "picture": "https://images.pexels.com/videos/854982/pictures/preview-1.jpg"
                },
                {
                    "id": 19593,
                    "nr": 2,
                    "picture": "https://images.pexels.com/videos/854982/pictures/preview-2.jpg"
                },
                {
                    "id": 19594,
                    "nr": 3,
                    "picture": "https://images.pexels.com/videos/854982/pictures/preview-3.jpg"
                },
                {
                    "id": 19595,
                    "nr": 4,
                    "picture": "https://images.pexels.com/videos/854982/pictures/preview-4.jpg"
                },
                {
                    "id": 19596,
                    "nr": 5,
                    "picture": "https://images.pexels.com/videos/854982/pictures/preview-5.jpg"
                },
                {
                    "id": 19597,
                    "nr": 6,
                    "picture": "https://images.pexels.com/videos/854982/pictures/preview-6.jpg"
                },
                {
                    "id": 19598,
                    "nr": 7,
                    "picture": "https://images.pexels.com/videos/854982/pictures/preview-7.jpg"
                },
                {
                    "id": 19599,
                    "nr": 8,
                    "picture": "https://images.pexels.com/videos/854982/pictures/preview-8.jpg"
                },
                {
                    "id": 19600,
                    "nr": 9,
                    "picture": "https://images.pexels.com/videos/854982/pictures/preview-9.jpg"
                },
                {
                    "id": 19601,
                    "nr": 10,
                    "picture": "https://images.pexels.com/videos/854982/pictures/preview-10.jpg"
                },
                {
                    "id": 19602,
                    "nr": 11,
                    "picture": "https://images.pexels.com/videos/854982/pictures/preview-11.jpg"
                },
                {
                    "id": 19603,
                    "nr": 12,
                    "picture": "https://images.pexels.com/videos/854982/pictures/preview-12.jpg"
                },
                {
                    "id": 19604,
                    "nr": 13,
                    "picture": "https://images.pexels.com/videos/854982/pictures/preview-13.jpg"
                },
                {
                    "id": 19605,
                    "nr": 14,
                    "picture": "https://images.pexels.com/videos/854982/pictures/preview-14.jpg"
                }
            ]
        }
    ],
    "page": 2,
    "per_page": 2,
    "total_results": 6,
    "next_page": "https://api.pexels.com/v1/collections/9mp14cx/?page=3&per_page=2",
    "prev_page": "https://api.pexels.com/v1/collections/9mp14cx/?page=1&per_page=2"
}
